{
  "name": "xuder",
  "reason": { "react-jsx": 3 },
  "bsc-flags": ["-bs-super-errors"],
  "sources": [
    {
      "dir": "src",
      "subdirs": true
    }
  ],
  "package-specs": [
    {
      "module": "es6",
      "in-source": true
    }
  ],
  "suffix": ".bs.js",
  "namespace": true,
  "bs-dependencies": [
    "reason-react",
    "bs-storybook",
    "@glennsl/bs-json",
    "bs-fetch"
  ],
  "ppx-flags": [],
  "refmt": 3
}
